{
  "type": "array",
  "description": "Flight List Response Schema",
  "items": {
    "type": "object",
    "properties": {
      "number": {
        "type": "number",
        "description": "The flight number"
      },
      "departureDate": {
        "type": "string",
        "format": "date-time",
        "description": "The flight departure date"
      },
      "departureAirport": {
        "type": "string",
        "description": "The flight departure airport"
      },
      "arrivalDate": {
        "type": "string",
        "format": "date-time",
        "description": "The flight arrival date"
      },
      "arrivalAirport": {
        "type": "string",
        "description": "The flight arrival airport"
      },
      "paxId": {
        "type": "string",
        "description": "The passenger id (if available)"
      },
      "pnr": {
        "type": "string",
        "description": "The associated pnr (if available)"
      }
    },
    "required": [
      "number",
      "departureDate",
      "departureAirport",
      "arrivalDate",
      "arrivalAirport"
    ]
  }
}